examples/scope_example_data_tek.csv

Model,MSO4104
Firmware Version,2.48

Point Format,Y,,,
Horizontal Units,S,,,
Horizontal Scale,1e-06,,,
Sample Interval,1e-09,,,
Record Length,10000,,,
Gating,0.0% to 100.0%,0.0% to 100.0%,0.0% to 100.0%,0.0% to 100.0%
Probe Attenuation,500,500,10,10
Vertical Units,V,V,A,A
Vertical Offset,0,0,0,0
Vertical Scale,500,100,1,2
Label,,,,
TIME,CH1,CH2,CH3,CH4
-5.0000e-06,70,-196,-4.18,-8.44
-4.9990e-06,130,-188,-4.06,-8.44
-4.9980e-06,130,-188,-4.06,-8.44
-4.9970e-06,170,-184,-4.06,-8.44
-4.9960e-06,230,-184,-3.94,-8.44
-4.9950e-06,270,-192,-3.98,-8.36
-4.9940e-06,310,-192,-4.14,-8.2
-4.9930e-06,330,-188,-4.22,-8.2
-4.9920e-06,350,-188,-4.34,-8.2
-4.9910e-06,390,-196,-4.5,-7.96
-4.9900e-06,430,-200,-4.54,-8.12
-4.9890e-06,470,-200,-4.62,-8.04
-4.9880e-06,530,-192,-4.66,-7.96
-4.9870e-06,490,-192,-4.74,-7.88
-4.9860e-06,570,-188,-4.66,-7.8
-4.9850e-06,590,-188,-4.62,-7.8
-4.9840e-06,610,-196,-4.5,-7.72
-4.9830e-06,630,-184,-4.38,-7.8
-4.9820e-06,630,-180,-4.38,-7.72
-4.9810e-06,630,-180,-4.38,-7.8
-4.9800e-06,650,-196,-4.34,-7.56
-4.9790e-06,690,-192,-4.42,-7.56
-4.9780e-06,690,-188,-4.54,-7.56
-4.9770e-06,710,-192,-4.58,-7.56
-4.9760e-06,690,-188,-4.7,-7.4
-4.9750e-06,750,-192,-4.74,-7.4
-4.9740e-06,790,-188,-4.82,-7.4
-4.9730e-06,810,-188,-4.78,-7.32
-4.9720e-06,810,-188,-4.62,-7.16
-4.9710e-06,790,-188,-4.66,-7.24
-4.9700e-06,830,-188,-4.58,-7.08
-4.9690e-06,830,-180,-4.5,-7.24
-4.9680e-06,870,-192,-4.42,-7.16
-4.9670e-06,810,-192,-4.38,-7.16
-4.9660e-06,870,-192,-4.26,-7.16
-4.9650e-06,830,-192,-4.26,-7.08
-4.9640e-06,850,-196,-4.26,-6.92
-4.9630e-06,810,-196,-4.34,-7
-4.9620e-06,830,-192,-4.42,-6.84
-4.9610e-06,790,-192,-4.46,-6.84
-4.9600e-06,830,-192,-4.46,-6.76
-4.9590e-06,810,-192,-4.54,-6.76
-4.9580e-06,830,-188,-4.54,-6.68
-4.9570e-06,810,-192,-4.54,-6.84
-4.9560e-06,810,-192,-4.46,-6.68
-4.9550e-06,810,-192,-4.42,-6.68
-4.9540e-06,810,-188,-4.26,-6.68
-4.9530e-06,790,-188,-4.14,-6.68
-4.9520e-06,830,-192,-3.98,-6.68
-4.9510e-06,850,-192,-3.9,-6.52
-4.9500e-06,810,-196,-3.82,-6.44
-4.9490e-06,810,-188,-3.86,-6.44
-4.9480e-06,850,-200,-3.82,-6.44
-4.9470e-06,810,-200,-3.86,-6.44
-4.9460e-06,850,-196,-3.9,-6.28
-4.9450e-06,790,-192,-4.1,-6.28
-4.9440e-06,810,-192,-4.14,-6.2
-4.9430e-06,790,-192,-4.14,-6.2
-4.9420e-06,850,-192,-4.14,-6.12
-4.9410e-06,810,-192,-4.06,-6.12
-4.9400e-06,790,-192,-4.1,-6.12
-4.9390e-06,850,-188,-4.02,-6.12
-4.9380e-06,810,-196,-3.98,-5.8
-4.9370e-06,810,-188,-3.94,-5.96
-4.9360e-06,830,-192,-3.9,-5.88
-4.9350e-06,810,-192,-3.9,-5.96
-4.9340e-06,810,-192,-3.9,-5.72
-4.9330e-06,790,-192,-3.82,-5.8
-4.9320e-06,830,-188,-3.74,-5.72
-4.9310e-06,790,-192,-3.82,-5.72
-4.9300e-06,850,-192,-3.82,-5.56
-4.9290e-06,850,-192,-3.82,-5.48
-4.9280e-06,830,-188,-3.86,-5.56
-4.9270e-06,810,-192,-3.74,-5.48
-4.9260e-06,830,-188,-3.74,-5.4
-4.9250e-06,810,-188,-3.74,-5.4
-4.9240e-06,830,-188,-3.74,-5.24
-4.9230e-06,810,-188,-3.7,-5.32
-4.9220e-06,830,-188,-3.66,-5.24
-4.9210e-06,850,-180,-3.66,-5.32
-4.9200e-06,810,-200,-3.66,-5.24
-4.9190e-06,810,-192,-3.62,-5.24
-4.9180e-06,830,-188,-3.54,-5.08
-4.9170e-06,830,-184,-3.54,-5.08
-4.9160e-06,810,-196,-3.62,-5
-4.9150e-06,830,-188,-3.66,-4.92
-4.9140e-06,830,-196,-3.58,-4.92
-4.9130e-06,790,-184,-3.62,-4.92
-4.9120e-06,790,-192,-3.62,-4.76
-4.9110e-06,830,-192,-3.5,-4.84
-4.9100e-06,830,-192,-3.46,-4.84
-4.9090e-06,830,-188,-3.42,-4.76
-4.9080e-06,850,-192,-3.42,-4.52
-4.9070e-06,790,-184,-3.42,-4.76
-4.9060e-06,850,-192,-3.34,-4.68
-4.9050e-06,830,-188,-3.42,-4.52
-4.9040e-06,790,-192,-3.3,-4.44
-4.9030e-06,810,-192,-3.38,-4.52
-4.9020e-06,830,-192,-3.38,-4.36
-4.9010e-06,810,-196,-3.34,-4.52
-4.9000e-06,810,-188,-3.38,-4.36
-4.8990e-06,810,-196,-3.42,-4.36
-4.8980e-06,850,-188,-3.34,-4.28
-4.8970e-06,830,-192,-3.42,-4.2
-4.8960e-06,810,-196,-3.3,-4.12
-4.8950e-06,830,-188,-3.3,-4.04
-4.8940e-06,810,-196,-3.26,-3.96
-4.8930e-06,790,-188,-3.3,-4.12
-4.8920e-06,850,-192,-3.14,-4.04
-4.8910e-06,830,-196,-3.18,-3.88
-4.8900e-06,850,-196,-3.14,-3.96
-4.8890e-06,810,-188,-3.1,-3.88
-4.8880e-06,830,-192,-3.06,-3.8
-4.8870e-06,810,-192,-2.98,-3.88
-4.8860e-06,850,-192,-2.94,-3.72
-4.8850e-06,810,-192,-2.98,-3.8
-4.8840e-06,830,-192,-2.98,-3.64
-4.8830e-06,810,-188,-2.98,-3.72
-4.8820e-06,830,-192,-2.94,-3.56
-4.8810e-06,810,-184,-2.9,-3.64
-4.8800e-06,830,-188,-2.9,-3.56
-4.8790e-06,850,-192,-2.9,-3.56
-4.8780e-06,850,-196,-2.94,-3.48
-4.8770e-06,830,-188,-2.82,-3.48
-4.8760e-06,830,-184,-2.78,-3.24
-4.8750e-06,790,-188,-2.74,-3.24
-4.8740e-06,810,-192,-2.74,-3.24
-4.8730e-06,810,-188,-2.7,-3.24
-4.8720e-06,850,-192,-2.66,-3.16
-4.8710e-06,850,-192,-2.66,-3.16
-4.8700e-06,790,-188,-2.66,-3.08
-4.8690e-06,810,-192,-2.7,-3
-4.8680e-06,870,-192,-2.66,-2.92
-4.8670e-06,830,-188,-2.58,-3.08
-4.8660e-06,790,-184,-2.66,-2.76
-4.8650e-06,810,-188,-2.62,-2.76
-4.8640e-06,810,-188,-2.62,-2.68
-4.8630e-06,830,-184,-2.62,-2.76
-4.8620e-06,790,-184,-2.7,-2.68
-4.8610e-06,810,-180,-2.66,-2.68
-4.8600e-06,830,-192,-2.7,-2.52
-4.8590e-06,790,-188,-2.7,-2.44
-4.8580e-06,810,-184,-2.7,-2.44
-4.8570e-06,810,-184,-2.66,-2.36
-4.8560e-06,850,-188,-2.58,-2.44
-4.8550e-06,810,-188,-2.62,-2.36
-4.8540e-06,790,-188,-2.58,-2.36
-4.8530e-06,810,-188,-2.58,-2.28
-4.8520e-06,830,-192,-2.62,-2.12
-4.8510e-06,810,-184,-2.5,-2.2
-4.8500e-06,790,-196,-2.58,-2.12
-4.8490e-06,810,-188,-2.58,-2.28
-4.8480e-06,870,-188,-2.5,-1.88
-4.8470e-06,810,-192,-2.58,-1.96
-4.8460e-06,790,-188,-2.58,-1.96
-4.8450e-06,870,-188,-2.54,-2.04
-4.8440e-06,850,-188,-2.46,-1.88
-4.8430e-06,790,-188,-2.46,-1.88
-4.8420e-06,850,-188,-2.46,-1.88
-4.8410e-06,790,-188,-2.46,-1.8
-4.8400e-06,810,-192,-2.3,-1.72
-4.8390e-06,850,-192,-2.38,-1.8
-4.8380e-06,810,-192,-2.26,-1.56
-4.8370e-06,810,-192,-2.26,-1.64
-4.8360e-06,810,-192,-2.26,-1.56
-4.8350e-06,770,-192,-2.26,-1.48
-4.8340e-06,790,-188,-2.26,-1.4
-4.8330e-06,790,-188,-2.18,-1.48
-4.8320e-06,830,-184,-2.14,-1.48
-4.8310e-06,830,-196,-2.06,-1.32
-4.8300e-06,790,-188,-2.14,-1.4
-4.8290e-06,830,-184,-2.14,-1.32
-4.8280e-06,790,-192,-2.14,-1.24
-4.8270e-06,790,-184,-2.1,-1.24
-4.8260e-06,790,-192,-2.14,-1.16
-4.8250e-06,810,-184,-2.06,-1.16
-4.8240e-06,770,-188,-2.06,-1.08
-4.8230e-06,810,-188,-1.98,-1.08
-4.8220e-06,830,-192,-2.02,-1
-4.8210e-06,810,-188,-2.06,-1
-4.8200e-06,810,-184,-2.1,-1
-4.8190e-06,810,-184,-2.06,-0.92
-4.8180e-06,850,-192,-2.02,-0.76
-4.8170e-06,810,-184,-2.1,-0.76
-4.8160e-06,810,-184,-2.06,-0.68
-4.8150e-06,810,-188,-2.02,-0.68
-4.8140e-06,830,-188,-2.1,-0.6
-4.8130e-06,810,-192,-2.1,-0.68
-4.8120e-06,830,-184,-2.06,-0.52
-4.8110e-06,810,-184,-2.14,-0.52
-4.8100e-06,790,-196,-2.06,-0.36
-4.8090e-06,830,-188,-2.06,-0.52
-4.8080e-06,770,-188,-2.14,-0.2
-4.8070e-06,830,-192,-2.02,-0.36
-4.8060e-06,790,-188,-2.14,-0.28
-4.8050e-06,790,-184,-2.02,-0.2
-4.8040e-06,850,-184,-2.06,-0.2
-4.8030e-06,810,-192,-2.02,-0.2
-4.8020e-06,830,-188,-2.02,0.04
-4.8010e-06,830,-180,-1.98,-0.12
-4.8000e-06,810,-188,-1.94,0.04
-4.7990e-06,810,-184,-1.9,-0.04
-4.7980e-06,830,-192,-1.94,0.04
-4.7970e-06,810,-184,-1.9,0.04
-4.7960e-06,790,-192,-1.9,0.12
-4.7950e-06,810,-188,-1.9,0.04
-4.7940e-06,830,-192,-1.82,0.2
-4.7930e-06,810,-196,-1.74,0.12
-4.7920e-06,810,-192,-1.74,0.2
-4.7910e-06,850,-188,-1.7,0.2
-4.7900e-06,810,-188,-1.66,0.28
-4.7890e-06,870,-188,-1.66,0.36
-4.7880e-06,790,-188,-1.58,0.36
-4.7870e-06,830,-196,-1.58,0.44
-4.7860e-06,790,-188,-1.54,0.6
-4.7850e-06,790,-188,-1.54,0.52
-4.7840e-06,810,-188,-1.58,0.52
-4.7830e-06,810,-188,-1.58,0.6
-4.7820e-06,830,-188,-1.54,0.6
-4.7810e-06,810,-188,-1.58,0.68
-4.7800e-06,810,-188,-1.54,0.68
-4.7790e-06,810,-192,-1.5,0.76
-4.7780e-06,810,-188,-1.5,0.76
-4.7770e-06,810,-184,-1.58,0.76
-4.7760e-06,810,-188,-1.5,1
-4.7750e-06,830,-188,-1.46,1
-4.7740e-06,810,-192,-1.46,0.92
-4.7730e-06,790,-180,-1.46,1
-4.7720e-06,830,-188,-1.38,1.16
-4.7710e-06,790,-188,-1.46,1.24
-4.7700e-06,830,-192,-1.5,1
-4.7690e-06,830,-184,-1.5,1.16
-4.7680e-06,830,-192,-1.42,1.24
-4.7670e-06,830,-184,-1.46,1.24
-4.7660e-06,830,-188,-1.5,1.4
-4.7650e-06,810,-188,-1.54,1.4
-4.7640e-06,790,-192,-1.54,1.48
-4.7630e-06,850,-188,-1.5,1.4
-4.7620e-06,790,-192,-1.5,1.48
-4.7610e-06,790,-184,-1.54,1.4
-4.7600e-06,810,-196,-1.42,1.56
-4.7590e-06,810,-184,-1.46,1.64
-4.7580e-06,810,-188,-1.3,1.72
-4.7570e-06,810,-188,-1.38,1.72
-4.7560e-06,810,-192,-1.34,1.72
-4.7550e-06,810,-188,-1.26,1.72
-4.7540e-06,830,-192,-1.38,1.88
-4.7530e-06,830,-192,-1.26,1.8
-4.7520e-06,830,-188,-1.3,2.04
-4.7510e-06,810,-192,-1.22,1.88
-4.7500e-06,810,-192,-1.22,2.04
-4.7490e-06,810,-192,-1.22,1.96
-4.7480e-06,810,-192,-1.1,2.04
-4.7470e-06,810,-188,-1.18,2.04
-4.7460e-06,830,-188,-1.14,2.28
-4.7450e-06,830,-180,-1.06,2.28
-4.7440e-06,850,-184,-1.02,2.28
-4.7430e-06,810,-180,-1.06,2.28
-4.7420e-06,830,-176,-0.98,2.36
-4.7410e-06,790,-156,-1.02,2.36
-4.7400e-06,850,-136,-0.9,2.44
-4.7390e-06,790,-100,-0.98,2.44
-4.7380e-06,830,-72,-0.94,2.52
-4.7370e-06,850,-48,-0.9,2.44
-4.7360e-06,850,-16,-0.94,2.6
-4.7350e-06,810,8,-0.98,2.44
-4.7340e-06,810,8,-1.02,2.68
-4.7330e-06,790,20,-1.06,2.68
-4.7320e-06,830,20,-1.06,2.68
-4.7310e-06,810,32,-1.06,2.76
-4.7300e-06,830,52,-1.06,2.84
-4.7290e-06,790,68,-1.06,2.76
-4.7280e-06,770,84,-1.1,2.84
-4.7270e-06,810,124,-1.06,2.76
-4.7260e-06,810,144,-1.06,3
-4.7250e-06,790,172,-1.06,2.76
-4.7240e-06,830,184,-1.02,2.84
-4.7230e-06,790,196,-1.02,2.84
-4.7220e-06,810,200,-1.02,2.84
-4.7210e-06,790,204,-1.02,2.84
-4.7200e-06,790,196,-1.06,3.08
-4.7190e-06,810,184,-1.14,3
-4.7180e-06,790,180,-1.14,2.92
-4.7170e-06,810,184,-1.14,2.92
-4.7160e-06,830,184,-1.18,2.92
-4.7150e-06,810,172,-1.26,2.92
-4.7140e-06,830,164,-1.18,2.76
-4.7130e-06,830,184,-1.14,2.92
-4.7120e-06,850,188,-1.06,2.92
-4.7110e-06,810,188,-1.1,2.84
-4.7100e-06,810,188,-0.9,2.84
-4.7090e-06,790,188,-0.82,2.84
-4.7080e-06,810,184,-0.86,2.84
-4.7070e-06,790,188,-0.86,2.76
-4.7060e-06,830,180,-0.9,2.92
-4.7050e-06,790,184,-0.98,2.76
-4.7040e-06,810,176,-0.9,2.76
-4.7030e-06,790,172,-0.86,2.92
-4.7020e-06,810,172,-0.9,2.92
-4.7010e-06,810,168,-0.86,2.84
-4.7000e-06,790,180,-0.78,2.84
-4.6990e-06,790,176,-0.78,2.92
-4.6980e-06,870,184,-0.74,2.92
-4.6970e-06,790,188,-0.7,2.76
-4.6960e-06,810,192,-0.66,2.84
-4.6950e-06,810,192,-0.66,2.84
-4.6940e-06,870,188,-0.66,2.84
-4.6930e-06,850,176,-0.7,2.92
-4.6920e-06,810,184,-0.66,2.76
-4.6910e-06,810,176,-0.74,2.76
-4.6900e-06,830,176,-0.7,2.76
-4.6890e-06,810,172,-0.74,2.68
-4.6880e-06,830,176,-0.74,2.84
-4.6870e-06,810,176,-0.74,2.76
-4.6860e-06,810,180,-0.82,2.76
-4.6850e-06,830,192,-0.78,2.76
-4.6840e-06,810,184,-0.78,2.84
-4.6830e-06,810,192,-0.74,2.76
-4.6820e-06,790,188,-0.66,2.84
-4.6810e-06,850,188,-0.74,2.68
-4.6800e-06,790,180,-0.78,2.84
-4.6790e-06,810,184,-0.82,2.84
-4.6780e-06,830,176,-0.86,2.84
-4.6770e-06,850,172,-0.86,2.76
-4.6760e-06,810,176,-0.82,2.84
-4.6750e-06,810,184,-0.9,2.84
-4.6740e-06,830,184,-0.94,2.76
-4.6730e-06,850,188,-0.82,2.76
-4.6720e-06,830,192,-0.86,2.84
-4.6710e-06,810,188,-0.78,2.76
-4.6700e-06,810,184,-0.78,2.84
-4.6690e-06,790,184,-0.78,2.68
-4.6680e-06,830,184,-0.74,2.76
-4.6670e-06,810,188,-0.82,2.68
-4.6660e-06,830,180,-0.82,2.84
-4.6650e-06,810,180,-0.82,2.76
-4.6640e-06,790,172,-0.78,2.84
-4.6630e-06,830,172,-0.86,2.68
-4.6620e-06,810,184,-0.82,2.84
-4.6610e-06,830,180,-0.82,2.84
-4.6600e-06,790,180,-0.78,2.76
-4.6590e-06,830,184,-0.82,2.76
-4.6580e-06,850,188,-0.82,2.84
-4.6570e-06,830,188,-0.82,2.68
-4.6560e-06,830,192,-0.78,2.84
-4.6550e-06,810,184,-0.78,2.76
-4.6540e-06,830,184,-0.78,2.84
-4.6530e-06,830,172,-0.78,2.84
-4.6520e-06,830,180,-0.74,2.92
-4.6510e-06,830,180,-0.74,2.76
-4.6500e-06,810,176,-0.74,2.84
-4.6490e-06,810,168,-0.74,2.76
-4.6480e-06,850,164,-0.78,2.84
-4.6470e-06,790,172,-0.78,2.76
-4.6460e-06,810,176,-0.78,2.84
-4.6450e-06,830,176,-0.82,2.76
-4.6440e-06,830,176,-0.78,2.84
-4.6430e-06,790,172,-0.78,2.76
-4.6420e-06,810,176,-0.74,2.76
-4.6410e-06,810,172,-0.78,2.76
-4.6400e-06,830,172,-0.74,2.84
-4.6390e-06,810,172,-0.74,2.76
-4.6380e-06,850,168,-0.78,2.84
-4.6370e-06,850,176,-0.78,2.76
-4.6360e-06,850,172,-0.7,2.92
-4.6350e-06,790,168,-0.74,2.76
-4.6340e-06,830,168,-0.78,2.76
-4.6330e-06,830,172,-0.74,2.76
-4.6320e-06,830,172,-0.78,2.76
-4.6310e-06,830,172,-0.7,2.76
-4.6300e-06,810,172,-0.78,2.84
-4.6290e-06,770,176,-0.7,2.76
-4.6280e-06,810,184,-0.66,2.76
-4.6270e-06,870,176,-0.74,2.68
-4.6260e-06,810,176,-0.7,2.76
-4.6250e-06,850,176,-0.74,2.76
-4.6240e-06,830,168,-0.66,2.76
-4.6230e-06,810,172,-0.74,2.84
-4.6220e-06,830,172,-0.66,2.84
-4.6210e-06,790,180,-0.7,2.84
-4.6200e-06,850,172,-0.66,2.84
-4.6190e-06,790,176,-0.7,2.76
-4.6180e-06,790,172,-0.66,2.84
-4.6170e-06,790,180,-0.66,2.84
-4.6160e-06,790,176,-0.66,2.84
-4.6150e-06,850,176,-0.74,2.76
-4.6140e-06,830,172,-0.66,2.76
-4.6130e-06,790,172,-0.74,2.84
-4.6120e-06,870,176,-0.62,2.92
-4.6110e-06,830,172,-0.7,2.68
-4.6100e-06,830,164,-0.66,2.84
-4.6090e-06,810,176,-0.62,2.76
-4.6080e-06,810,176,-0.7,2.84
-4.6070e-06,790,176,-0.7,2.68
-4.6060e-06,830,172,-0.74,2.84
-4.6050e-06,850,168,-0.66,2.68
-4.6040e-06,830,172,-0.78,2.84
-4.6030e-06,810,172,-0.78,2.76
-4.6020e-06,810,180,-0.78,2.84
-4.6010e-06,810,164,-0.82,2.68
-4.6000e-06,870,172,-0.74,2.84
-4.5990e-06,790,168,-0.74,2.76
-4.5980e-06,830,168,-0.74,2.68
-4.5970e-06,830,176,-0.78,2.84
-4.5960e-06,790,168,-0.74,2.84
-4.5950e-06,830,172,-0.74,2.76
-4.5940e-06,850,168,-0.7,2.84
-4.5930e-06,850,172,-0.78,2.84
-4.5920e-06,830,172,-0.7,2.84
-4.5910e-06,790,164,-0.7,2.76
-4.5900e-06,830,168,-0.74,2.76
-4.5890e-06,810,176,-0.74,2.76
-4.5880e-06,830,172,-0.7,2.84
-4.5870e-06,810,164,-0.7,2.84
-4.5860e-06,830,172,-0.7,2.92
-4.5850e-06,810,172,-0.66,2.76
-4.5840e-06,810,176,-0.66,2.84
-4.5830e-06,810,172,-0.7,2.76
-4.5820e-06,810,176,-0.66,2.76
-4.5810e-06,790,176,-0.62,2.84
-4.5800e-06,810,172,-0.62,2.84
-4.5790e-06,830,176,-0.66,2.84
-4.5780e-06,830,172,-0.58,2.84
-4.5770e-06,810,180,-0.58,2.84
-4.5760e-06,830,168,-0.58,2.92
-4.5750e-06,770,176,-0.58,2.76
-4.5740e-06,810,168,-0.54,2.76
-4.5730e-06,750,172,-0.58,2.76
-4.5720e-06,830,180,-0.62,3
-4.5710e-06,810,172,-0.58,2.76
-4.5700e-06,830,176,-0.58,2.92
-4.5690e-06,810,180,-0.62,2.84
-4.5680e-06,810,172,-0.58,2.92
-4.5670e-06,810,172,-0.58,2.84
-4.5660e-06,810,168,-0.54,2.76
-4.5650e-06,810,176,-0.58,3
-4.5640e-06,810,180,-0.58,2.84
-4.5630e-06,850,176,-0.62,2.76
-4.5620e-06,850,172,-0.62,2.92
-4.5610e-06,810,172,-0.62,2.84
-4.5600e-06,830,176,-0.66,2.84
-4.5590e-06,810,172,-0.7,2.84
-4.5580e-06,830,172,-0.66,2.92
-4.5570e-06,810,168,-0.66,2.84
-4.5560e-06,830,176,-0.66,2.92
-4.5550e-06,850,176,-0.7,2.76
-4.5540e-06,830,172,-0.66,3
-4.5530e-06,810,168,-0.66,2.92
-4.5520e-06,830,172,-0.66,3
-4.5510e-06,810,176,-0.66,2.92
-4.5500e-06,830,172,-0.66,2.92
-4.5490e-06,790,168,-0.66,2.92
-4.5480e-06,830,168,-0.7,2.92
-4.5470e-06,810,168,-0.66,2.84
-4.5460e-06,830,176,-0.62,3
-4.5450e-06,790,168,-0.58,2.92
-4.5440e-06,810,172,-0.58,3
-4.5430e-06,810,172,-0.58,2.84
-4.5420e-06,810,168,-0.58,2.92
-4.5410e-06,810,172,-0.54,2.92
-4.5400e-06,790,168,-0.54,3
-4.5390e-06,830,164,-0.54,2.92
-4.5380e-06,810,172,-0.5,3
-4.5370e-06,810,180,-0.58,2.92
-4.5360e-06,830,164,-0.46,3
-4.5350e-06,810,164,-0.54,2.92
-4.5340e-06,810,164,-0.5,3
-4.5330e-06,830,176,-0.5,2.92
-4.5320e-06,850,180,-0.5,3
-4.5310e-06,810,172,-0.42,2.92
-4.5300e-06,810,172,-0.46,3
-4.5290e-06,790,172,-0.46,3
-4.5280e-06,830,176,-0.46,2.92
-4.5270e-06,830,176,-0.46,2.92
-4.5260e-06,810,176,-0.42,2.92
-4.5250e-06,810,172,-0.46,2.92
-4.5240e-06,790,176,-0.42,3.08
-4.5230e-06,790,176,-0.46,2.92
-4.5220e-06,830,164,-0.42,2.92
-4.5210e-06,810,180,-0.5,3
-4.5200e-06,830,176,-0.42,2.92
-4.5190e-06,790,172,-0.5,3
-4.5180e-06,810,172,-0.5,3
-4.5170e-06,810,172,-0.5,2.92
-4.5160e-06,810,180,-0.54,3.08
-4.5150e-06,810,172,-0.58,3.08
-4.5140e-06,830,176,-0.54,3.08
-4.5130e-06,850,172,-0.58,3
-4.5120e-06,790,172,-0.58,3.08
-4.5110e-06,810,168,-0.58,3
-4.5100e-06,790,176,-0.5,3
-4.5090e-06,850,172,-0.66,2.92
-4.5080e-06,830,168,-0.5,3.08
-4.5070e-06,790,172,-0.54,2.84
-4.5060e-06,830,176,-0.58,2.92
-4.5050e-06,790,172,-0.62,3.08
-4.5040e-06,830,176,-0.5,3.08
-4.5030e-06,810,176,-0.58,3.08
-4.5020e-06,850,172,-0.62,3
-4.5010e-06,830,172,-0.5,3
-4.5000e-06,810,176,-0.5,3
-4.4990e-06,810,168,-0.5,3.08
-4.4980e-06,770,172,-0.46,3.08
-4.4970e-06,810,172,-0.46,3.16
-4.4960e-06,810,164,-0.46,3.08
-4.4950e-06,810,168,-0.46,3
-4.4940e-06,810,168,-0.46,3.08
-4.4930e-06,810,168,-0.5,3
-4.4920e-06,830,176,-0.46,3.08
-4.4910e-06,830,172,-0.38,3.08
-4.4900e-06,810,172,-0.38,3.08
-4.4890e-06,830,168,-0.38,3
-4.4880e-06,810,172,-0.38,2.92
-4.4870e-06,810,172,-0.38,2.92
-4.4860e-06,790,172,-0.42,2.92
-4.4850e-06,850,172,-0.42,3
-4.4840e-06,850,176,-0.34,3
-4.4830e-06,830,176,-0.46,3
-4.4820e-06,790,164,-0.38,3.08
-4.4810e-06,810,168,-0.42,3
-4.4800e-06,810,168,-0.42,3
-4.4790e-06,810,168,-0.46,3
-4.4780e-06,810,172,-0.38,3.08
-4.4770e-06,790,180,-0.38,2.92
-4.4760e-06,810,172,-0.5,3.08
-4.4750e-06,790,172,-0.5,3
-4.4740e-06,810,172,-0.42,3
-4.4730e-06,830,172,-0.42,3
-4.4720e-06,810,172,-0.42,3.08
-4.4710e-06,810,172,-0.46,3
-4.4700e-06,790,176,-0.46,3.08
-4.4690e-06,810,172,-0.5,3
-4.4680e-06,810,176,-0.54,3.08
-4.4670e-06,830,176,-0.5,3
-4.4660e-06,850,172,-0.54,3
-4.4650e-06,810,172,-0.54,3
-4.4640e-06,850,172,-0.5,3.08
-4.4630e-06,790,176,-0.62,3.08
-4.4620e-06,810,172,-0.5,3.08
-4.4610e-06,790,164,-0.5,3
-4.4600e-06,830,172,-0.46,3.08
-4.4590e-06,810,168,-0.54,3.16
-4.4580e-06,830,172,-0.5,3.08
-4.4570e-06,810,176,-0.5,3
-4.4560e-06,790,168,-0.5,3.16
-4.4550e-06,830,176,-0.58,3
-4.4540e-06,810,172,-0.42,3.16
-4.4530e-06,830,172,-0.5,3.16
-4.4520e-06,870,176,-0.42,3.08
-4.4510e-06,810,172,-0.46,3.08
-4.4500e-06,830,172,-0.42,3
-4.4490e-06,810,172,-0.38,3.08
-4.4480e-06,810,172,-0.34,3.08
-4.4470e-06,770,164,-0.34,3.16
-4.4460e-06,810,172,-0.38,3.16
-4.4450e-06,810,172,-0.42,3.08
-4.4440e-06,830,172,-0.34,3
-4.4430e-06,810,176,-0.38,2.92
-4.4420e-06,790,168,-0.34,3.08
-4.4410e-06,810,172,-0.38,3.08
-4.4400e-06,850,172,-0.34,3
-4.4390e-06,830,168,-0.38,3.08
-4.4380e-06,830,168,-0.26,3.08
-4.4370e-06,810,176,-0.34,3.08
-4.4360e-06,870,176,-0.38,3.08
-4.4350e-06,810,168,-0.34,3.08
-4.4340e-06,810,172,-0.34,3.08
-4.4330e-06,790,172,-0.38,3.08
-4.4320e-06,850,168,-0.3,3.08
-4.4310e-06,790,168,-0.42,3.08
-4.4300e-06,790,180,-0.38,3.24
-4.4290e-06,810,172,-0.42,3.08
-4.4280e-06,790,176,-0.38,3.08
-4.4270e-06,790,172,-0.38,3.08
-4.4260e-06,850,168,-0.42,3
-4.4250e-06,790,172,-0.42,3
-4.4240e-06,810,172,-0.42,3.08
-4.4230e-06,790,172,-0.38,2.92
-4.4220e-06,850,176,-0.38,3.16
-4.4210e-06,830,172,-0.38,3
-4.4200e-06,830,176,-0.46,3.16
-4.4190e-06,830,172,-0.42,3.08
-4.4180e-06,830,176,-0.42,3.24
-4.4170e-06,790,176,-0.42,3.08
-4.4160e-06,830,176,-0.38,3.24
-4.4150e-06,850,172,-0.42,3.08
-4.4140e-06,830,172,-0.38,3.16
-4.4130e-06,810,172,-0.38,3.16
-4.4120e-06,830,164,-0.38,3.16
-4.4110e-06,830,176,-0.38,3.24
-4.4100e-06,810,168,-0.34,3.16
-4.4090e-06,810,172,-0.38,3.16
-4.4080e-06,810,168,-0.38,3.24
-4.4070e-06,790,172,-0.3,3
-4.4060e-06,830,168,-0.38,3.24
-4.4050e-06,790,172,-0.3,3.16
-4.4040e-06,810,168,-0.34,3.16
-4.4030e-06,810,176,-0.34,3.08
-4.4020e-06,830,164,-0.3,3.24
-4.4010e-06,850,172,-0.22,3.16
-4.4000e-06,870,172,-0.22,3.32
-4.3990e-06,810,172,-0.34,3.08
-4.3980e-06,830,168,-0.26,3.24
-4.3970e-06,810,172,-0.3,3.08
-4.3960e-06,810,164,-0.26,3.16
-4.3950e-06,810,172,-0.22,3.16
-4.3940e-06,790,172,-0.22,3.16
-4.3930e-06,790,172,-0.3,3.16
-4.3920e-06,830,168,-0.26,3.08
-4.3910e-06,850,168,-0.26,3.16
-4.3900e-06,850,168,-0.26,3.08
-4.3890e-06,810,176,-0.26,3.16
-4.3880e-06,830,168,-0.3,3.24
-4.3870e-06,810,172,-0.34,3.24
-4.3860e-06,810,168,-0.22,3.24
-4.3850e-06,830,172,-0.3,3.32
-4.3840e-06,810,172,-0.26,3.16
-4.3830e-06,810,172,-0.26,3.32
-4.3820e-06,810,180,-0.26,3.24
-4.3810e-06,830,176,-0.34,3.24
-4.3800e-06,790,176,-0.3,3.16
-4.3790e-06,850,172,-0.3,3.24
-4.3780e-06,810,172,-0.3,3.32
-4.3770e-06,790,172,-0.26,3.24
-4.3760e-06,830,176,-0.26,3.16
-4.3750e-06,810,168,-0.3,3.16
-4.3740e-06,850,176,-0.22,3.32
-4.3730e-06,810,176,-0.26,3.08
-4.3720e-06,850,172,-0.26,3.32
-4.3710e-06,830,172,-0.3,3.16
